\providecommand{\abntreprintinfo}[1]{%
 \citeonline{#1}}
\setlength{\labelsep}{0pt}\begin{thebibliography}{}
\providecommand{\abntrefinfo}[3]{}
\providecommand{\abntbstabout}[1]{}
\abntbstabout{v-1.9.2 }

\bibitem[Blog Cigam 2011]{niveiscmmi}
\abntrefinfo{Blog Cigam}{BLOG CIGAM}{2011}
{BLOG CIGAM. \emph{Níveis do CMMI}. 2011.
[Online: acessado 08-Maio-2016].
Dispon{\'\i}vel em:
  \url{http://blogcigam.magicsoftware.com.br/cmmi-\%E2\%80\%93-boas-praticas-no-desenvolvimento-e-implementacao-do-erp-cigam/}.}

\bibitem[Chrissis, Konrad e Shrum 2003]{chrissis2003cmmi}
\abntrefinfo{Chrissis, Konrad e Shrum}{CHRISSIS; KONRAD; SHRUM}{2003}
{CHRISSIS, M.~B.; KONRAD, M.; SHRUM, S. \emph{CMMI guidelines for process
  integration and product improvement}. [S.l.]: Addison-Wesley Longman
  Publishing Co., Inc., 2003.}

\bibitem[CMMI Product Team 2002]{cmmiteam}
\abntrefinfo{CMMI Product Team}{CMMI PRODUCT TEAM}{2002}
{CMMI PRODUCT TEAM. \emph{Capability Maturity Model{\textregistered}
  Integration (CMMI SM), Version 1.1}. 2002.}

\bibitem[Fumsoft S/D]{imgfumsoft}
\abntrefinfo{Fumsoft}{FUMSOFT}{S/D}
{FUMSOFT. \emph{Modelo MPS.Br}. S/D.
[Online: acessado 06-Maio-2016].
Dispon{\'\i}vel em: \url{http://www.fumsoft.org.br/qualidade/modelo\_mpsbr}.}

\bibitem[Gotel 1995]{gotel}
\abntrefinfo{Gotel}{GOTEL}{1995}
{GOTEL, O. Thesis: Contribution structures for requirements traceability. In:
  . [S.l.: s.n.], 1995.}

\bibitem[Gotel e Finkelstein 1994]{finkelstein}
\abntrefinfo{Gotel e Finkelstein}{GOTEL; FINKELSTEIN}{1994}
{GOTEL, O.; FINKELSTEIN, A. An analysis of the requirements traceability
  problem.
\emph{Imperial College of Science, Technology and Medicine}, p.~27, 1994.}

\bibitem[Guia Geral MPS de Software 2012]{guiamps}
\abntrefinfo{Guia\ldots}{GUIA\ldots}{2012}
{GUIA Geral MPS de Software. [S.l.]: Associação para a Promoção da
  Excelência do Software Brasileiro, 2012.}

\bibitem[Hokkanen 2001]{hokkanen}
\abntrefinfo{Hokkanen}{HOKKANEN}{2001}
{HOKKANEN, M. Requirements traceability.
2001.}

\bibitem[IBM 2008]{disciplines}
\abntrefinfo{IBM}{IBM}{2008}
{IBM. \emph{RUP PM discipline expanded from PMBOK}. 2008.}

\bibitem[Leffingwell 2003]{leffingwell}
\abntrefinfo{Leffingwell}{LEFFINGWELL}{2003}
{LEFFINGWELL, D. \emph{Managing Software Requirements: A Use Case Approach}.
  2nd edition. ed. [S.l.]: Boston, 2003.}

\bibitem[Pressman 2011]{pressman}
\abntrefinfo{Pressman}{PRESSMAN}{2011}
{PRESSMAN, R. \emph{Engenharia de Software: Uma abordagem profissional}. 7ª
  edição. ed. [S.l.]: Porto Alegre, 2011.}

\bibitem[Ramesh et al. 1995]{ramesh}
\abntrefinfo{Ramesh et al.}{RAMESH et al.}{1995}
{RAMESH, B. et al. \emph{Lessons learned from Implementing Requirements
  Traceability}. [S.l.: s.n.], 1995.}

\bibitem[RUP 2006]{lifecycle}
\abntrefinfo{RUP}{RUP}{2006}
{RUP. \emph{The phases and milestones of a project}. 2006.}

\bibitem[SAFe 2016]{safe}
\abntrefinfo{SAFe}{SAFE}{2016}
{SAFE. \emph{Scaled Agile Framework® (SAFe®)}. 2016.
[Online: acessado 06-Maio-2016].}

\end{thebibliography}
