\relax 
\providecommand\hyper@newdestlabel[2]{}
\providecommand\BKM@entry[2]{}
\providecommand*{\memsetcounter}[2]{}
\providecommand\HyperFirstAtBeginDocument{\AtBeginDocument}
\HyperFirstAtBeginDocument{\ifx\hyper@anchor\@undefined
\global\let\oldcontentsline\contentsline
\gdef\contentsline#1#2#3#4{\oldcontentsline{#1}{#2}{#3}}
\global\let\oldnewlabel\newlabel
\gdef\newlabel#1#2{\newlabelxx{#1}#2}
\gdef\newlabelxx#1#2#3#4#5#6{\oldnewlabel{#1}{{#2}{#3}}}
\AtEndDocument{\ifx\hyper@anchor\@undefined
\let\contentsline\oldcontentsline
\let\newlabel\oldnewlabel
\fi}
\fi}
\global\let\hyper@last\relax 
\gdef\HyperFirstAtBeginDocument#1{#1}
\providecommand*\HyPL@Entry[1]{}
\catcode `:\active 
\catcode `;\active 
\catcode `!\active 
\catcode `?\active 
\catcode `"\active 
\citation{abnt-url-package=url}
\HyPL@Entry{0<</S/D>>}
\@writefile{toc}{\changetocdepth  {4}}
\select@language{brazil}
\@writefile{toc}{\select@language{brazil}}
\@writefile{lof}{\select@language{brazil}}
\@writefile{lot}{\select@language{brazil}}
\BKM@entry{id=1,dest={6368617074657262312E30},srcline={19}}{466F6C686120646520726F73746F}
\HyPL@Entry{2<</S/D>>}
\BKM@entry{id=2,dest={6C6F662E30},srcline={1}}{4C6973746120646520696C75737472615C3334375C3336356573}
\citation{lifecycle}
\citation{disciplines}
\citation{safe}
\citation{niveiscmmi}
\citation{chrissis2003cmmi}
\citation{guiamps}
\citation{imgfumsoft}
\citation{gotel}
\@writefile{toc}{\setlength  {\cftchapterindent }{\cftlastnumwidth } \setlength  {\cftchapternumwidth }{2em}}
\@writefile{brf}{\backcite{lifecycle}{{3}{(document)}{Doc-Start}}}
\@writefile{brf}{\backcite{disciplines}{{3}{(document)}{Doc-Start}}}
\@writefile{brf}{\backcite{safe}{{3}{(document)}{Doc-Start}}}
\@writefile{brf}{\backcite{niveiscmmi}{{3}{(document)}{Doc-Start}}}
\@writefile{brf}{\backcite{chrissis2003cmmi}{{3}{(document)}{Doc-Start}}}
\@writefile{brf}{\backcite{guiamps}{{3}{(document)}{Doc-Start}}}
\@writefile{brf}{\backcite{imgfumsoft}{{3}{(document)}{Doc-Start}}}
\@writefile{brf}{\backcite{gotel}{{3}{(document)}{Doc-Start}}}
\BKM@entry{id=3,dest={6C6F742E30},srcline={4}}{4C6973746120646520746162656C6173}
\@writefile{toc}{\setlength  {\cftchapterindent }{\cftlastnumwidth } \setlength  {\cftchapternumwidth }{2em}}
\BKM@entry{id=4,dest={6368617074657262332E30},srcline={1}}{4C69737461206465206162726576696174757261732065207369676C6173}
\@writefile{toc}{\setlength  {\cftchapterindent }{\cftlastnumwidth } \setlength  {\cftchapternumwidth }{2em}}
\BKM@entry{id=5,dest={746F632E30},srcline={1}}{53756D5C33343172696F}
\@writefile{toc}{\setlength  {\cftchapterindent }{\cftlastnumwidth } \setlength  {\cftchapternumwidth }{2em}}
\BKM@entry{id=6,dest={636861707465722A2E34},srcline={2}}{496E74726F64755C3334375C3334336F}
\citation{pressman}
\citation{pressman}
\citation{pressman}
\citation{pressman}
\citation{pressman}
\@writefile{toc}{\setlength  {\cftchapterindent }{\cftlastnumwidth } \setlength  {\cftchapternumwidth }{2em}}
\@writefile{toc}{\contentsline {chapter}{Introdu\IeC {\c c}\IeC {\~a}o}{13}{chapter*.4}}
\@writefile{brf}{\backcite{pressman}{{13}{(document)}{Doc-Start}}}
\@writefile{brf}{\backcite{pressman}{{13}{(document)}{Doc-Start}}}
\@writefile{brf}{\backcite{pressman}{{13}{(document)}{Doc-Start}}}
\@writefile{brf}{\backcite{pressman}{{13}{(document)}{Doc-Start}}}
\@writefile{brf}{\backcite{pressman}{{13}{(document)}{Doc-Start}}}
\BKM@entry{id=7,dest={636861707465722E31},srcline={1}}{41626F72646167656D20646520456E67656E68617269612064652052657175697369746F73}
\BKM@entry{id=8,dest={73656374696F6E2E312E31},srcline={3}}{41626F72646167656D20547261646963696F6E616C}
\citation{leffingwell}
\citation{lifecycle}
\citation{lifecycle}
\citation{leffingwell}
\citation{leffingwell}
\citation{leffingwell}
\citation{leffingwell}
\@writefile{toc}{\setlength  {\cftchapterindent }{0em} \setlength  {\cftchapternumwidth }{\cftlastnumwidth }}
\@writefile{toc}{\contentsline {chapter}{\chapternumberline {1}\MakeTextUppercase  {Abordagem de Engenharia de Requisitos}}{15}{chapter.1}}
\@writefile{toc}{\contentsline {section}{\numberline {1.1}Abordagem Tradicional}{15}{section.1.1}}
\@writefile{brf}{\backcite{leffingwell}{{15}{1.1}{section.1.1}}}
\newlabel{ciclo-de-vida-rup}{{\M@TitleReference {1.1}{Abordagem Tradicional}}{15}{Abordagem Tradicional}{section.1.1}{}}
\@writefile{lof}{\contentsline {figure}{\numberline {1}{\ignorespaces Ciclo de vida das fases do processo iterativo (fonte: \cite  {lifecycle})}}{15}{figure.1.1}}
\@writefile{brf}{\backcite{lifecycle}{{15}{1}{figure.1.1}}}
\@writefile{brf}{\backcite{leffingwell}{{15}{1.1}{figure.1.1}}}
\@writefile{brf}{\backcite{leffingwell}{{15}{1.1}{figure.1.1}}}
\@writefile{brf}{\backcite{leffingwell}{{15}{1.1}{figure.1.1}}}
\@writefile{brf}{\backcite{leffingwell}{{15}{1.1}{figure.1.1}}}
\citation{leffingwell}
\citation{disciplines}
\citation{disciplines}
\@writefile{brf}{\backcite{leffingwell}{{16}{1.1}{figure.1.1}}}
\newlabel{disciplinas-rup}{{\M@TitleReference {1.1}{Abordagem Tradicional}}{16}{Abordagem Tradicional}{figure.1.1}{}}
\@writefile{lof}{\contentsline {figure}{\numberline {2}{\ignorespaces Disciplinas do processo unificado (fonte: \cite  {disciplines})}}{16}{figure.1.2}}
\@writefile{brf}{\backcite{disciplines}{{16}{2}{figure.1.2}}}
\BKM@entry{id=9,dest={73656374696F6E2E312E32},srcline={35}}{41626F72646167656D205C33303167696C}
\citation{safe}
\citation{safe}
\@writefile{toc}{\contentsline {section}{\numberline {1.2}Abordagem \IeC {\'A}gil}{17}{section.1.2}}
\newlabel{niveis-safe}{{\M@TitleReference {1.2}{Abordagem \IeC {\'A}gil}}{17}{Abordagem Ágil}{section.1.2}{}}
\@writefile{lof}{\contentsline {figure}{\numberline {3}{\ignorespaces Representa\IeC {\c c}\IeC {\~a}o em n\IeC {\'\i }veis de times do SAFe (fonte: \cite  {safe})}}{17}{figure.1.3}}
\@writefile{brf}{\backcite{safe}{{17}{3}{figure.1.3}}}
\BKM@entry{id=10,dest={73656374696F6E2E312E33},srcline={52}}{4D6F64656C6F73206465204D617475726964616465}
\BKM@entry{id=11,dest={73756273656374696F6E2E312E332E31},srcline={54}}{434D4D49}
\citation{cmmiteam}
\citation{niveiscmmi}
\citation{niveiscmmi}
\@writefile{toc}{\contentsline {section}{\numberline {1.3}Modelos de Maturidade}{18}{section.1.3}}
\@writefile{toc}{\contentsline {subsection}{\numberline {1.3.1}CMMI}{18}{subsection.1.3.1}}
\@writefile{brf}{\backcite{cmmiteam}{{18}{1.3.1}{subsection.1.3.1}}}
\newlabel{niveis-cmmi}{{\M@TitleReference {1.3.1}{CMMI}}{18}{CMMI}{subsection.1.3.1}{}}
\@writefile{lof}{\contentsline {figure}{\numberline {4}{\ignorespaces N\IeC {\'\i }veis do CMMI (fonte: \cite  {niveiscmmi})}}{18}{figure.1.4}}
\@writefile{brf}{\backcite{niveiscmmi}{{18}{4}{figure.1.4}}}
\citation{cmmiteam}
\citation{chrissis2003cmmi}
\citation{chrissis2003cmmi}
\@writefile{brf}{\backcite{cmmiteam}{{19}{1.3.1}{figure.1.4}}}
\newlabel{componentes-cmmi}{{\M@TitleReference {1.3.1}{CMMI}}{19}{CMMI}{figure.1.4}{}}
\@writefile{lof}{\contentsline {figure}{\numberline {5}{\ignorespaces Componentes do modelo CMMI (fonte: \cite  {chrissis2003cmmi})}}{19}{figure.1.5}}
\@writefile{brf}{\backcite{chrissis2003cmmi}{{19}{5}{figure.1.5}}}
\BKM@entry{id=12,dest={73756273656374696F6E2E312E332E32},srcline={82}}{4D50532E4252}
\citation{guiamps}
\citation{guiamps}
\citation{guiamps}
\citation{guiamps}
\@writefile{toc}{\contentsline {subsection}{\numberline {1.3.2}MPS.BR}{20}{subsection.1.3.2}}
\@writefile{brf}{\backcite{guiamps}{{20}{1.3.2}{subsection.1.3.2}}}
\@writefile{brf}{\backcite{guiamps}{{20}{1.3.2}{subsection.1.3.2}}}
\newlabel{componentes-mpsbr}{{\M@TitleReference {1.3.2}{MPS.BR}}{20}{MPS.BR}{subsection.1.3.2}{}}
\@writefile{lof}{\contentsline {figure}{\numberline {6}{\ignorespaces Componentes do modelo MPS.BR (fonte: \cite  {guiamps})}}{20}{figure.1.6}}
\@writefile{brf}{\backcite{guiamps}{{20}{6}{figure.1.6}}}
\citation{guiamps}
\citation{guiamps}
\citation{imgfumsoft}
\citation{imgfumsoft}
\@writefile{brf}{\backcite{guiamps}{{21}{1.3.2}{figure.1.6}}}
\@writefile{brf}{\backcite{guiamps}{{21}{1.3.2}{figure.1.6}}}
\newlabel{niveis-maturidade-mpsbr}{{\M@TitleReference {1.3.2}{MPS.BR}}{21}{MPS.BR}{figure.1.6}{}}
\@writefile{lof}{\contentsline {figure}{\numberline {7}{\ignorespaces  N\IeC {\'\i }veis de maturidade do MPS.BR (fonte: \cite  {imgfumsoft})}}{21}{figure.1.7}}
\@writefile{brf}{\backcite{imgfumsoft}{{21}{7}{figure.1.7}}}
\BKM@entry{id=13,dest={636861707465722E32},srcline={1}}{436F6E746578746F}
\@writefile{toc}{\setlength  {\cftchapterindent }{0em} \setlength  {\cftchapternumwidth }{\cftlastnumwidth }}
\@writefile{toc}{\contentsline {chapter}{\chapternumberline {2}\MakeTextUppercase  {Contexto}}{23}{chapter.2}}
\BKM@entry{id=14,dest={636861707465722E33},srcline={1}}{4A7573746966696361746976612064612041626F72646167656D}
\BKM@entry{id=15,dest={73656374696F6E2E332E31},srcline={7}}{4573636F6C686120646F204D6F64656C6F206465204D617475726964616465}
\@writefile{toc}{\setlength  {\cftchapterindent }{0em} \setlength  {\cftchapternumwidth }{\cftlastnumwidth }}
\@writefile{toc}{\contentsline {chapter}{\chapternumberline {3}\MakeTextUppercase  {Justificativa da Abordagem}}{25}{chapter.3}}
\@writefile{toc}{\contentsline {section}{\numberline {3.1}Escolha do Modelo de Maturidade}{25}{section.3.1}}
\BKM@entry{id=16,dest={636861707465722E34},srcline={1}}{50726F636573736F20646520456E67656E68617269612064652052657175697369746F73}
\@writefile{toc}{\setlength  {\cftchapterindent }{0em} \setlength  {\cftchapternumwidth }{\cftlastnumwidth }}
\@writefile{toc}{\contentsline {chapter}{\chapternumberline {4}\MakeTextUppercase  {Processo de Engenharia de Requisitos}}{27}{chapter.4}}
\newlabel{processo-er-geral}{{\M@TitleReference {4}{\MakeTextUppercase  {Processo de Engenharia de Requisitos}}}{27}{Processo de Engenharia de Requisitos}{chapter.4}{}}
\@writefile{lof}{\contentsline {figure}{\numberline {8}{\ignorespaces Processo de elicita\IeC {\c c}\IeC {\~a}o dos requisitos}}{27}{figure.4.8}}
\BKM@entry{id=17,dest={73656374696F6E2E342E31},srcline={12}}{416E616C697361722050726F626C656D61}
\BKM@entry{id=18,dest={73756273656374696F6E2E342E312E31},srcline={16}}{50726F636573736F}
\@writefile{toc}{\contentsline {section}{\numberline {4.1}Analisar Problema}{28}{section.4.1}}
\@writefile{toc}{\contentsline {subsection}{\numberline {4.1.1}Processo}{28}{subsection.4.1.1}}
\newlabel{analisar-problema}{{\M@TitleReference {4.1.1}{Processo}}{28}{Processo}{subsection.4.1.1}{}}
\@writefile{lof}{\contentsline {figure}{\numberline {9}{\ignorespaces Macro-atividade: Analisar Problema}}{28}{figure.4.9}}
\BKM@entry{id=19,dest={73756273656374696F6E2E342E312E32},srcline={27}}{5061705C3335316973}
\BKM@entry{id=20,dest={73756273756273656374696F6E2E342E312E322E31},srcline={29}}{416E616C697374612064652053697374656D61}
\BKM@entry{id=21,dest={73756273656374696F6E2E342E312E33},srcline={33}}{417274656661746F73}
\BKM@entry{id=22,dest={73756273756273656374696F6E2E342E312E332E31},srcline={35}}{526567726173206465204E65675C33363363696F}
\BKM@entry{id=23,dest={73756273756273656374696F6E2E342E312E332E32},srcline={39}}{476C6F73735C33343172696F}
\BKM@entry{id=24,dest={73756273756273656374696F6E2E342E312E332E33},srcline={43}}{446F63756D656E746F206465205669735C3334336F205C28696E696369616C5C29}
\BKM@entry{id=25,dest={73756273756273656374696F6E2E342E312E332E34},srcline={47}}{4D6F64656C6F206465204361736F732064652055736F205C28536F6D656E74652041746F7265735C29}
\BKM@entry{id=26,dest={73756273656374696F6E2E342E312E34},srcline={51}}{41746976696461646573}
\BKM@entry{id=27,dest={73756273756273656374696F6E2E342E312E342E31},srcline={53}}{456E74656E64657220636F6E746578746F20646120656D7072657361}
\BKM@entry{id=28,dest={73756273756273656374696F6E2E342E312E342E32},srcline={67}}{436170747572617220566F636162756C5C33343172696F20436F6D756D}
\@writefile{toc}{\contentsline {subsection}{\numberline {4.1.2}Pap\IeC {\'e}is}{29}{subsection.4.1.2}}
\@writefile{toc}{\contentsline {subsubsection}{\numberline {4.1.2.1}Analista de Sistema}{29}{subsubsection.4.1.2.1}}
\@writefile{toc}{\contentsline {subsection}{\numberline {4.1.3}Artefatos}{29}{subsection.4.1.3}}
\@writefile{toc}{\contentsline {subsubsection}{\numberline {4.1.3.1}Regras de Neg\IeC {\'o}cio}{29}{subsubsection.4.1.3.1}}
\@writefile{toc}{\contentsline {subsubsection}{\numberline {4.1.3.2}Gloss\IeC {\'a}rio}{29}{subsubsection.4.1.3.2}}
\@writefile{toc}{\contentsline {subsubsection}{\numberline {4.1.3.3}Documento de Vis\IeC {\~a}o (inicial)}{29}{subsubsection.4.1.3.3}}
\@writefile{toc}{\contentsline {subsubsection}{\numberline {4.1.3.4}Modelo de Casos de Uso (Somente Atores)}{29}{subsubsection.4.1.3.4}}
\@writefile{toc}{\contentsline {subsection}{\numberline {4.1.4}Atividades}{29}{subsection.4.1.4}}
\@writefile{toc}{\contentsline {subsubsection}{\numberline {4.1.4.1}Entender contexto da empresa}{29}{subsubsection.4.1.4.1}}
\BKM@entry{id=29,dest={73756273756273656374696F6E2E342E312E342E33},srcline={81}}{446573656E766F6C766572205669735C3334336F}
\BKM@entry{id=30,dest={73756273756273656374696F6E2E342E312E342E34},srcline={95}}{4C6F63616C697A61722041746F726573}
\BKM@entry{id=31,dest={73756273756273656374696F6E2E342E312E342E35},srcline={109}}{44657363726576657220696E746572615C3334375C3334336F20656E7472652061746F72657320652070726F626C656D61}
\BKM@entry{id=32,dest={73656374696F6E2E342E32},srcline={123}}{456E74656E64656E646F204E656365737369646164657320646F7320456E766F6C7669646F73}
\@writefile{toc}{\contentsline {subsubsection}{\numberline {4.1.4.2}Capturar Vocabul\IeC {\'a}rio Comum}{30}{subsubsection.4.1.4.2}}
\@writefile{toc}{\contentsline {subsubsection}{\numberline {4.1.4.3}Desenvolver Vis\IeC {\~a}o}{30}{subsubsection.4.1.4.3}}
\@writefile{toc}{\contentsline {subsubsection}{\numberline {4.1.4.4}Localizar Atores}{30}{subsubsection.4.1.4.4}}
\@writefile{toc}{\contentsline {subsubsection}{\numberline {4.1.4.5}Descrever intera\IeC {\c c}\IeC {\~a}o entre atores e problema}{30}{subsubsection.4.1.4.5}}
\BKM@entry{id=33,dest={73756273656374696F6E2E342E322E31},srcline={127}}{50726F636573736F}
\@writefile{toc}{\contentsline {section}{\numberline {4.2}Entendendo Necessidades dos Envolvidos}{31}{section.4.2}}
\@writefile{toc}{\contentsline {subsection}{\numberline {4.2.1}Processo}{31}{subsection.4.2.1}}
\newlabel{entender-nec-envolvidos}{{\M@TitleReference {4.2.1}{Processo}}{31}{Processo}{subsection.4.2.1}{}}
\@writefile{lof}{\contentsline {figure}{\numberline {10}{\ignorespaces Macro-atividade: Entendendo Necessidades dos Envolvidos}}{31}{figure.4.10}}
\BKM@entry{id=34,dest={73756273656374696F6E2E342E322E32},srcline={138}}{5061705C3335316973}
\BKM@entry{id=35,dest={73756273756273656374696F6E2E342E322E322E31},srcline={140}}{416E616C697374612064652053697374656D61}
\BKM@entry{id=36,dest={73756273656374696F6E2E342E322E33},srcline={144}}{417274656661746F73}
\BKM@entry{id=37,dest={73756273756273656374696F6E2E342E322E332E31},srcline={146}}{536F6C69636974615C3334375C3334336F20646F73207072696E636970616973207374616B65686F6C64657273}
\BKM@entry{id=38,dest={73756273756273656374696F6E2E342E322E332E32},srcline={150}}{476C6F73735C33343172696F}
\BKM@entry{id=39,dest={73756273756273656374696F6E2E342E322E332E33},srcline={154}}{446F63756D656E746F206465205669735C3334336F205C28726566696E61646F5C29}
\BKM@entry{id=40,dest={73756273756273656374696F6E2E342E322E332E34},srcline={158}}{457370656369666963615C3334375C3334336F205375706C656D656E746172}
\BKM@entry{id=41,dest={73756273756273656374696F6E2E342E322E332E35},srcline={162}}{4D6F64656C6F206465204361736F732064652055736F}
\BKM@entry{id=42,dest={73756273656374696F6E2E342E322E34},srcline={166}}{41746976696461646573}
\BKM@entry{id=43,dest={73756273756273656374696F6E2E342E322E342E31},srcline={168}}{4964656E7469666963617220736F6C69636974615C3334375C3334336F20646F73207072696E636970616973207374616B65686F6C64657273}
\BKM@entry{id=44,dest={73756273756273656374696F6E2E342E322E342E32},srcline={182}}{436170747572617220766F636162756C5C33343172696F20636F6D756D}
\@writefile{toc}{\contentsline {subsection}{\numberline {4.2.2}Pap\IeC {\'e}is}{32}{subsection.4.2.2}}
\@writefile{toc}{\contentsline {subsubsection}{\numberline {4.2.2.1}Analista de Sistema}{32}{subsubsection.4.2.2.1}}
\@writefile{toc}{\contentsline {subsection}{\numberline {4.2.3}Artefatos}{32}{subsection.4.2.3}}
\@writefile{toc}{\contentsline {subsubsection}{\numberline {4.2.3.1}Solicita\IeC {\c c}\IeC {\~a}o dos principais \textit  {stakeholders}}{32}{subsubsection.4.2.3.1}}
\@writefile{toc}{\contentsline {subsubsection}{\numberline {4.2.3.2}Gloss\IeC {\'a}rio}{32}{subsubsection.4.2.3.2}}
\@writefile{toc}{\contentsline {subsubsection}{\numberline {4.2.3.3}Documento de Vis\IeC {\~a}o (refinado)}{32}{subsubsection.4.2.3.3}}
\@writefile{toc}{\contentsline {subsubsection}{\numberline {4.2.3.4}Especifica\IeC {\c c}\IeC {\~a}o Suplementar}{32}{subsubsection.4.2.3.4}}
\@writefile{toc}{\contentsline {subsubsection}{\numberline {4.2.3.5}Modelo de Casos de Uso}{32}{subsubsection.4.2.3.5}}
\@writefile{toc}{\contentsline {subsection}{\numberline {4.2.4}Atividades}{32}{subsection.4.2.4}}
\@writefile{toc}{\contentsline {subsubsection}{\numberline {4.2.4.1}Identificar solicita\IeC {\c c}\IeC {\~a}o dos principais \textit  {stakeholders}}{32}{subsubsection.4.2.4.1}}
\BKM@entry{id=45,dest={73756273756273656374696F6E2E342E322E342E33},srcline={196}}{446573656E766F6C766572205669735C3334336F}
\BKM@entry{id=46,dest={73756273756273656374696F6E2E342E322E342E34},srcline={210}}{446573656E766F6C76657220457370656369666963615C3334375C3334336F205375706C656D656E746172}
\BKM@entry{id=47,dest={73756273756273656374696F6E2E342E322E342E35},srcline={224}}{45737472757475726172206F204D6F64656C6F206465204361736F732064652055736F}
\BKM@entry{id=48,dest={73656374696F6E2E342E33},srcline={238}}{56616C69646172204D6F64656C6F206465204361736F732064652055736F}
\@writefile{toc}{\contentsline {subsubsection}{\numberline {4.2.4.2}Capturar vocabul\IeC {\'a}rio comum}{33}{subsubsection.4.2.4.2}}
\@writefile{toc}{\contentsline {subsubsection}{\numberline {4.2.4.3}Desenvolver Vis\IeC {\~a}o}{33}{subsubsection.4.2.4.3}}
\@writefile{toc}{\contentsline {subsubsection}{\numberline {4.2.4.4}Desenvolver Especifica\IeC {\c c}\IeC {\~a}o Suplementar}{33}{subsubsection.4.2.4.4}}
\@writefile{toc}{\contentsline {subsubsection}{\numberline {4.2.4.5}Estruturar o Modelo de Casos de Uso}{33}{subsubsection.4.2.4.5}}
\BKM@entry{id=49,dest={73656374696F6E2E342E34},srcline={252}}{4573706563696669636172204361736F732064652055736F}
\BKM@entry{id=50,dest={73656374696F6E2E342E35},srcline={266}}{5072696F72697A6172204361736F732064652055736F}
\BKM@entry{id=51,dest={73656374696F6E2E342E36},srcline={280}}{446573656E766F6C7665722050726F745C3336337469706F20646520496E74657266616365}
\@writefile{toc}{\contentsline {section}{\numberline {4.3}Validar Modelo de Casos de Uso}{34}{section.4.3}}
\@writefile{toc}{\contentsline {section}{\numberline {4.4}Especificar Casos de Uso}{34}{section.4.4}}
\@writefile{toc}{\contentsline {section}{\numberline {4.5}Priorizar Casos de Uso}{34}{section.4.5}}
\@writefile{toc}{\contentsline {section}{\numberline {4.6}Desenvolver Prot\IeC {\'o}tipo de Interface}{34}{section.4.6}}
\BKM@entry{id=52,dest={73656374696F6E2E342E37},srcline={294}}{56616C696461722050726F745C3336337469706F}
\BKM@entry{id=53,dest={73656374696F6E2E342E38},srcline={308}}{496D706C656D656E7461722061746976696461646573}
\BKM@entry{id=54,dest={73656374696F6E2E342E39},srcline={324}}{4765725C3335326E636961206465206D7564616E5C3334376173}
\BKM@entry{id=55,dest={73756273656374696F6E2E342E392E31},srcline={328}}{50726F636573736F}
\@writefile{toc}{\contentsline {section}{\numberline {4.7}Validar Prot\IeC {\'o}tipo}{35}{section.4.7}}
\@writefile{toc}{\contentsline {section}{\numberline {4.8}Implementar atividades}{35}{section.4.8}}
\@writefile{toc}{\contentsline {section}{\numberline {4.9}Ger\IeC {\^e}ncia de mudan\IeC {\c c}as}{35}{section.4.9}}
\@writefile{toc}{\contentsline {subsection}{\numberline {4.9.1}Processo}{35}{subsection.4.9.1}}
\newlabel{gerenciar-mudancas}{{\M@TitleReference {4.9.1}{Processo}}{36}{Processo}{subsection.4.9.1}{}}
\@writefile{lof}{\contentsline {figure}{\numberline {11}{\ignorespaces Macro-atividade: Gerenciar Mudan\IeC {\c c}as}}{36}{figure.4.11}}
\BKM@entry{id=56,dest={73756273656374696F6E2E342E392E32},srcline={339}}{5061705C3335316973}
\BKM@entry{id=57,dest={73756273756273656374696F6E2E342E392E322E31},srcline={341}}{52657669736F7220745C333531636E69636F}
\BKM@entry{id=58,dest={73756273656374696F6E2E342E392E33},srcline={345}}{417274656661746F73}
\BKM@entry{id=59,dest={73756273756273656374696F6E2E342E392E332E31},srcline={347}}{536F6C69636974615C3334375C3334336F206465206D7564616E5C33343761}
\BKM@entry{id=60,dest={73756273756273656374696F6E2E342E392E332E32},srcline={351}}{52656C61745C33363372696F20646520496D706163746F20646173206D7564616E5C3334376173}
\BKM@entry{id=61,dest={73756273756273656374696F6E2E342E392E332E33},srcline={355}}{52656C61745C33363372696F206465204176616C69615C3334375C3334336F20646173206D7564616E5C3334376173}
\BKM@entry{id=62,dest={73756273656374696F6E2E342E392E34},srcline={359}}{41746976696461646573}
\BKM@entry{id=63,dest={73756273756273656374696F6E2E342E392E342E31},srcline={361}}{416E616C6973617220696D706163746F20646173206D7564616E5C3334376173}
\BKM@entry{id=64,dest={73756273756273656374696F6E2E342E392E342E32},srcline={375}}{416E616C697361722076696162696C696461646520646173206D7564616E5C3334376173}
\BKM@entry{id=65,dest={73756273756273656374696F6E2E342E392E342E33},srcline={389}}{496D706C656D656E746172206D7564616E5C3334376173}
\@writefile{toc}{\contentsline {subsection}{\numberline {4.9.2}Pap\IeC {\'e}is}{37}{subsection.4.9.2}}
\@writefile{toc}{\contentsline {subsubsection}{\numberline {4.9.2.1}Revisor t\IeC {\'e}cnico}{37}{subsubsection.4.9.2.1}}
\@writefile{toc}{\contentsline {subsection}{\numberline {4.9.3}Artefatos}{37}{subsection.4.9.3}}
\@writefile{toc}{\contentsline {subsubsection}{\numberline {4.9.3.1}Solicita\IeC {\c c}\IeC {\~a}o de mudan\IeC {\c c}a}{37}{subsubsection.4.9.3.1}}
\@writefile{toc}{\contentsline {subsubsection}{\numberline {4.9.3.2}Relat\IeC {\'o}rio de Impacto das mudan\IeC {\c c}as}{37}{subsubsection.4.9.3.2}}
\@writefile{toc}{\contentsline {subsubsection}{\numberline {4.9.3.3}Relat\IeC {\'o}rio de Avalia\IeC {\c c}\IeC {\~a}o das mudan\IeC {\c c}as}{37}{subsubsection.4.9.3.3}}
\@writefile{toc}{\contentsline {subsection}{\numberline {4.9.4}Atividades}{37}{subsection.4.9.4}}
\@writefile{toc}{\contentsline {subsubsection}{\numberline {4.9.4.1}Analisar impacto das mudan\IeC {\c c}as}{37}{subsubsection.4.9.4.1}}
\@writefile{toc}{\contentsline {subsubsection}{\numberline {4.9.4.2}Analisar viabilidade das mudan\IeC {\c c}as}{37}{subsubsection.4.9.4.2}}
\BKM@entry{id=66,dest={73756273756273656374696F6E2E342E392E342E34},srcline={403}}{4D656C686F7261722F417475616C697A617220617274656661746F73}
\@writefile{toc}{\contentsline {subsubsection}{\numberline {4.9.4.3}Implementar mudan\IeC {\c c}as}{38}{subsubsection.4.9.4.3}}
\@writefile{toc}{\contentsline {subsubsection}{\numberline {4.9.4.4}Melhorar/Atualizar artefatos}{38}{subsubsection.4.9.4.4}}
\BKM@entry{id=67,dest={636861707465722E35},srcline={1}}{50726F636573736F2058204D6F64656C6F206465204D617475726964616465}
\citation{guiamps}
\@writefile{toc}{\setlength  {\cftchapterindent }{0em} \setlength  {\cftchapternumwidth }{\cftlastnumwidth }}
\@writefile{toc}{\contentsline {chapter}{\chapternumberline {5}\MakeTextUppercase  {Processo X Modelo de Maturidade}}{39}{chapter.5}}
\@writefile{brf}{\backcite{guiamps}{{39}{5}{chapter.5}}}
\newlabel{my-label}{{\M@TitleReference {5}{\MakeTextUppercase  {Processo X Modelo de Maturidade}}}{40}{Processo X Modelo de Maturidade}{chapter.5}{}}
\@writefile{lot}{\contentsline {table}{\numberline {1}{\ignorespaces Mapeamento das atividades com os resultados esperados do MPS.BR}}{40}{table.5.1}}
\BKM@entry{id=68,dest={636861707465722E36},srcline={1}}{456C69636974615C3334375C3334336F2064652052657175697369746F73}
\BKM@entry{id=69,dest={73656374696F6E2E362E31},srcline={3}}{545C333531636E6963617320646520656C69636974615C3334375C3334336F2064652072657175697369746F73}
\BKM@entry{id=70,dest={73756273656374696F6E2E362E312E31},srcline={8}}{50726F746F7469706167656D}
\BKM@entry{id=71,dest={73756273656374696F6E2E362E312E32},srcline={14}}{456E7472657669737461}
\BKM@entry{id=72,dest={73756273656374696F6E2E362E312E33},srcline={20}}{427261696E73746F726D696E67}
\@writefile{toc}{\setlength  {\cftchapterindent }{0em} \setlength  {\cftchapternumwidth }{\cftlastnumwidth }}
\@writefile{toc}{\contentsline {chapter}{\chapternumberline {6}\MakeTextUppercase  {Elicita\IeC {\c c}\IeC {\~a}o de Requisitos}}{41}{chapter.6}}
\@writefile{toc}{\contentsline {section}{\numberline {6.1}T\IeC {\'e}cnicas de elicita\IeC {\c c}\IeC {\~a}o de requisitos}{41}{section.6.1}}
\@writefile{toc}{\contentsline {subsection}{\numberline {6.1.1}Prototipagem}{41}{subsection.6.1.1}}
\@writefile{toc}{\contentsline {subsection}{\numberline {6.1.2}Entrevista}{41}{subsection.6.1.2}}
\@writefile{toc}{\contentsline {subsection}{\numberline {6.1.3}\textit  {Brainstorming}}{41}{subsection.6.1.3}}
\BKM@entry{id=73,dest={73756273656374696F6E2E362E312E34},srcline={27}}{576F726B73686F70}
\@writefile{toc}{\contentsline {subsection}{\numberline {6.1.4}\textit  {Workshop}}{42}{subsection.6.1.4}}
\BKM@entry{id=74,dest={636861707465722E37},srcline={1}}{5261737472656162696C6964616465}
\BKM@entry{id=75,dest={73656374696F6E2E372E31},srcline={3}}{4573747261745C333531676961206465207261737472656162696C6964616465}
\citation{ramesh}
\citation{hokkanen}
\citation{finkelstein}
\citation{gotel}
\citation{gotel}
\@writefile{toc}{\setlength  {\cftchapterindent }{0em} \setlength  {\cftchapternumwidth }{\cftlastnumwidth }}
\@writefile{toc}{\contentsline {chapter}{\chapternumberline {7}\MakeTextUppercase  {Rastreabilidade}}{43}{chapter.7}}
\@writefile{toc}{\contentsline {section}{\numberline {7.1}Estrat\IeC {\'e}gia de rastreabilidade}{43}{section.7.1}}
\@writefile{brf}{\backcite{ramesh}{{43}{7.1}{section.7.1}}}
\@writefile{brf}{\backcite{hokkanen}{{43}{7.1}{section.7.1}}}
\@writefile{brf}{\backcite{finkelstein}{{43}{7.1}{section.7.1}}}
\newlabel{rastreabilidade}{{\M@TitleReference {7.1}{Estrat\IeC {\'e}gia de rastreabilidade}}{44}{Estratégia de rastreabilidade}{section.7.1}{}}
\@writefile{lof}{\contentsline {figure}{\numberline {12}{\ignorespaces Distin\IeC {\c c}\IeC {\~a}o entre tipos de rastreabilidade \cite  {gotel}}}{44}{figure.7.12}}
\@writefile{brf}{\backcite{gotel}{{44}{12}{figure.7.12}}}
\newlabel{exemplo-rastreabilidade}{{\M@TitleReference {7.1}{Estrat\IeC {\'e}gia de rastreabilidade}}{45}{Estratégia de rastreabilidade}{figure.7.12}{}}
\@writefile{lof}{\contentsline {figure}{\numberline {13}{\ignorespaces Rastreabilidade Vertical RUP}}{45}{figure.7.13}}
\BKM@entry{id=76,dest={73656374696F6E2E372E32},srcline={35}}{417472696275746F732064652072657175697369746F73}
\BKM@entry{id=77,dest={73756273656374696F6E2E372E322E31},srcline={39}}{4573746162696C6964616465}
\BKM@entry{id=78,dest={73756273656374696F6E2E372E322E32},srcline={57}}{5072696F726964616465}
\@writefile{toc}{\contentsline {section}{\numberline {7.2}Atributos de requisitos}{46}{section.7.2}}
\@writefile{toc}{\contentsline {subsection}{\numberline {7.2.1}Estabilidade}{46}{subsection.7.2.1}}
\newlabel{my-label}{{\M@TitleReference {7.2.1}{Estabilidade}}{46}{Estabilidade}{subsection.7.2.1}{}}
\@writefile{lot}{\contentsline {table}{\numberline {2}{\ignorespaces Valores assumidos para o atributo estabilidade}}{46}{table.7.2}}
\@writefile{toc}{\contentsline {subsection}{\numberline {7.2.2}Prioridade}{46}{subsection.7.2.2}}
\newlabel{my-label}{{\M@TitleReference {7.2.2}{Prioridade}}{47}{Prioridade}{subsection.7.2.2}{}}
\@writefile{lot}{\contentsline {table}{\numberline {3}{\ignorespaces Valores assumidos para o atributo prioridade}}{47}{table.7.3}}
\BKM@entry{id=79,dest={73756273656374696F6E2E372E322E33},srcline={77}}{4469666963756C64616465}
\@writefile{toc}{\contentsline {subsection}{\numberline {7.2.3}Dificuldade}{48}{subsection.7.2.3}}
\newlabel{my-label}{{\M@TitleReference {7.2.3}{Dificuldade}}{48}{Dificuldade}{subsection.7.2.3}{}}
\@writefile{lot}{\contentsline {table}{\numberline {4}{\ignorespaces Valores assumidos para o atributo dificuldade}}{48}{table.7.4}}
\BKM@entry{id=80,dest={636861707465722E38},srcline={1}}{506C616E656A616D656E746F20646F2050726F6A65746F}
\BKM@entry{id=81,dest={73656374696F6E2E382E31},srcline={3}}{4661736573}
\BKM@entry{id=82,dest={73756273656374696F6E2E382E312E31},srcline={5}}{506C616E656A616D656E746F}
\BKM@entry{id=83,dest={73756273656374696F6E2E382E312E32},srcline={23}}{456C69636974615C3334375C3334336F}
\BKM@entry{id=84,dest={73756273656374696F6E2E382E312E33},srcline={41}}{446F63756D656E74615C3334375C3334336F}
\@writefile{toc}{\setlength  {\cftchapterindent }{0em} \setlength  {\cftchapternumwidth }{\cftlastnumwidth }}
\@writefile{toc}{\contentsline {chapter}{\chapternumberline {8}\MakeTextUppercase  {Planejamento do Projeto}}{49}{chapter.8}}
\@writefile{toc}{\contentsline {section}{\numberline {8.1}Fases}{49}{section.8.1}}
\@writefile{toc}{\contentsline {subsection}{\numberline {8.1.1}Planejamento}{49}{subsection.8.1.1}}
\@writefile{toc}{\contentsline {subsection}{\numberline {8.1.2}Elicita\IeC {\c c}\IeC {\~a}o}{49}{subsection.8.1.2}}
\BKM@entry{id=85,dest={73756273656374696F6E2E382E312E34},srcline={59}}{56616C6964615C3334375C3334336F}
\BKM@entry{id=86,dest={73756273656374696F6E2E382E312E35},srcline={77}}{476572656E6369616D656E746F20646F732072657175697369746F73}
\@writefile{toc}{\contentsline {subsection}{\numberline {8.1.3}Documenta\IeC {\c c}\IeC {\~a}o}{50}{subsection.8.1.3}}
\@writefile{toc}{\contentsline {subsection}{\numberline {8.1.4}Valida\IeC {\c c}\IeC {\~a}o}{50}{subsection.8.1.4}}
\@writefile{toc}{\contentsline {subsection}{\numberline {8.1.5}Gerenciamento dos requisitos}{50}{subsection.8.1.5}}
\BKM@entry{id=87,dest={73656374696F6E2E382E32},srcline={95}}{43726F6E6F6772616D61}
\@writefile{toc}{\contentsline {section}{\numberline {8.2}Cronograma}{51}{section.8.2}}
\newlabel{cronograma-pt1}{{\M@TitleReference {8.2}{Cronograma}}{51}{Cronograma}{section.8.2}{}}
\@writefile{lof}{\contentsline {figure}{\numberline {14}{\ignorespaces Primeira parte do cronograma do projeto}}{51}{figure.8.14}}
\newlabel{cronograma-pt2}{{\M@TitleReference {8.2}{Cronograma}}{52}{Cronograma}{figure.8.14}{}}
\@writefile{lof}{\contentsline {figure}{\numberline {15}{\ignorespaces Segunda parte do cronograma do projeto}}{52}{figure.8.15}}
\BKM@entry{id=88,dest={636861707465722E39},srcline={1}}{46657272616D656E746120646520476573745C3334336F2064652052657175697369746F73}
\BKM@entry{id=89,dest={73656374696F6E2E392E31},srcline={5}}{4573636F6C68612064612066657272616D656E7461}
\BKM@entry{id=90,dest={73756273656374696F6E2E392E312E31},srcline={7}}{526174696F6E616C2052657175697369746550726F}
\@writefile{toc}{\setlength  {\cftchapterindent }{0em} \setlength  {\cftchapternumwidth }{\cftlastnumwidth }}
\@writefile{toc}{\contentsline {chapter}{\chapternumberline {9}\MakeTextUppercase  {Ferramenta de Gest\IeC {\~a}o de Requisitos}}{53}{chapter.9}}
\@writefile{toc}{\contentsline {section}{\numberline {9.1}Escolha da ferramenta}{53}{section.9.1}}
\@writefile{toc}{\contentsline {subsection}{\numberline {9.1.1}\textit  {Rational RequisitePro}}{53}{subsection.9.1.1}}
\newlabel{requisite-pro}{{\M@TitleReference {9.1.1}{\textit  {Rational RequisitePro}}}{53}{\textit {Rational RequisitePro}}{subsection.9.1.1}{}}
\@writefile{lof}{\contentsline {figure}{\numberline {16}{\ignorespaces Ferramenta \textit  {RequisitePro} de gest\IeC {\~a}o de requisitos}}{53}{figure.9.16}}
\BKM@entry{id=91,dest={73756273656374696F6E2E392E312E32},srcline={22}}{526571756972656D656E744F6E65}
\@writefile{toc}{\contentsline {subsection}{\numberline {9.1.2}\textit  {RequirementOne}}{54}{subsection.9.1.2}}
\newlabel{requirement-one}{{\M@TitleReference {9.1.2}{\textit  {RequirementOne}}}{54}{\textit {RequirementOne}}{subsection.9.1.2}{}}
\@writefile{lof}{\contentsline {figure}{\numberline {17}{\ignorespaces Ferramenta RequirementOne de gest\IeC {\~a}o de requisitos}}{54}{figure.9.17}}
\BKM@entry{id=92,dest={73756273656374696F6E2E392E312E33},srcline={37}}{56697375616C205573652043617365}
\@writefile{toc}{\contentsline {subsection}{\numberline {9.1.3}\textit  {Visual Use Case}}{55}{subsection.9.1.3}}
\newlabel{visual-use-case}{{\M@TitleReference {9.1.3}{\textit  {Visual Use Case}}}{55}{\textit {Visual Use Case}}{subsection.9.1.3}{}}
\@writefile{lof}{\contentsline {figure}{\numberline {18}{\ignorespaces Ferramenta \textit  {Visual Use Case} de gest\IeC {\~a}o de requisitos}}{55}{figure.9.18}}
\BKM@entry{id=93,dest={73656374696F6E2E392E32},srcline={50}}{437269745C33353172696F206465206573636F6C68612064612066657272616D656E7461}
\@writefile{toc}{\contentsline {section}{\numberline {9.2}Crit\IeC {\'e}rio de escolha da ferramenta}{56}{section.9.2}}
\newlabel{tools-performance}{{\M@TitleReference {9.2}{Crit\IeC {\'e}rio de escolha da ferramenta}}{56}{Critério de escolha da ferramenta}{section.9.2}{}}
\@writefile{lot}{\contentsline {table}{\numberline {5}{\ignorespaces Comparativo entre as ferramentas de Gest\IeC {\~a}o de Requisitos}}{56}{table.9.5}}
\BKM@entry{id=94,dest={636861707465722E3130},srcline={1}}{436F6E7369646572615C3334375C33363565732046696E616973}
\bibdata{abntex2-options,bibliografia}
\@writefile{toc}{\setlength  {\cftchapterindent }{0em} \setlength  {\cftchapternumwidth }{\cftlastnumwidth }}
\@writefile{toc}{\contentsline {chapter}{\chapternumberline {10}\MakeTextUppercase  {Considera\IeC {\c c}\IeC {\~o}es Finais}}{57}{chapter.10}}
\@writefile{toc}{\vspace  {\cftbeforechapterskip }}
\BKM@entry{id=95,dest={73656374696F6E2A2E37},srcline={3}}{52656665725C3335326E63696173}
\bibcite{niveiscmmi}{Blog Cigam 2011}
\bibciteEXPL{niveiscmmi}{Blog Cigam}
\bibciteIMPL{niveiscmmi}{BLOG CIGAM}
\bibciteYEAR{niveiscmmi}{2011}
\bibcite{chrissis2003cmmi}{Chrissis, Konrad e Shrum 2003}
\bibciteEXPL{chrissis2003cmmi}{Chrissis, Konrad e Shrum}
\bibciteIMPL{chrissis2003cmmi}{CHRISSIS; KONRAD; SHRUM}
\bibciteYEAR{chrissis2003cmmi}{2003}
\bibcite{cmmiteam}{CMMI Product Team 2002}
\bibciteEXPL{cmmiteam}{CMMI Product Team}
\bibciteIMPL{cmmiteam}{CMMI PRODUCT TEAM}
\bibciteYEAR{cmmiteam}{2002}
\bibcite{imgfumsoft}{Fumsoft S/D}
\bibciteEXPL{imgfumsoft}{Fumsoft}
\bibciteIMPL{imgfumsoft}{FUMSOFT}
\bibciteYEAR{imgfumsoft}{S/D}
\bibcite{gotel}{Gotel 1995}
\bibciteEXPL{gotel}{Gotel}
\bibciteIMPL{gotel}{GOTEL}
\bibciteYEAR{gotel}{1995}
\bibcite{finkelstein}{Gotel e Finkelstein 1994}
\bibciteEXPL{finkelstein}{Gotel e Finkelstein}
\bibciteIMPL{finkelstein}{GOTEL; FINKELSTEIN}
\bibciteYEAR{finkelstein}{1994}
\bibcite{guiamps}{Guia Geral MPS de Software 2012}
\bibciteEXPL{guiamps}{Guia\dots  }
\bibciteIMPL{guiamps}{GUIA\dots  }
\bibciteYEAR{guiamps}{2012}
\bibcite{hokkanen}{Hokkanen 2001}
\bibciteEXPL{hokkanen}{Hokkanen}
\bibciteIMPL{hokkanen}{HOKKANEN}
\bibciteYEAR{hokkanen}{2001}
\bibcite{disciplines}{IBM 2008}
\bibciteEXPL{disciplines}{IBM}
\bibciteIMPL{disciplines}{IBM}
\bibciteYEAR{disciplines}{2008}
\bibcite{leffingwell}{Leffingwell 2003}
\bibciteEXPL{leffingwell}{Leffingwell}
\bibciteIMPL{leffingwell}{LEFFINGWELL}
\bibciteYEAR{leffingwell}{2003}
\bibcite{pressman}{Pressman 2011}
\bibciteEXPL{pressman}{Pressman}
\bibciteIMPL{pressman}{PRESSMAN}
\bibciteYEAR{pressman}{2011}
\bibcite{ramesh}{Ramesh et al. 1995}
\bibciteEXPL{ramesh}{Ramesh et al.}
\bibciteIMPL{ramesh}{RAMESH et al.}
\bibciteYEAR{ramesh}{1995}
\bibcite{lifecycle}{RUP 2006}
\bibciteEXPL{lifecycle}{RUP}
\bibciteIMPL{lifecycle}{RUP}
\bibciteYEAR{lifecycle}{2006}
\bibcite{safe}{SAFe 2016}
\bibciteEXPL{safe}{SAFe}
\bibciteIMPL{safe}{SAFE}
\bibciteYEAR{safe}{2016}
\@writefile{toc}{\setlength  {\cftchapterindent }{\cftlastnumwidth } \setlength  {\cftchapternumwidth }{2em}}
\@writefile{toc}{\contentsline {chapter}{Refer\^encias}{59}{section*.7}}
\newlabel{LastPage}{{}{59}{}{page.59}{}}
\xdef\lastpage@lastpage{59}
\xdef\lastpage@lastpageHy{59}
\bibstyle{abntex2-alf}
\memsetcounter{lastsheet}{61}
\memsetcounter{lastpage}{59}
